<svg width="26" height="26" viewBox="0 0 26 26" fill="none" xmlns="http://www.w3.org/2000/svg">
<path d="M1 1L24.5 24.5M24.5 1L1 24.5" stroke="#D25043" stroke-width="2" stroke-linecap="round"/>
</svg>
